main-window-title=Boolean Expression Minimizer
editor-tab-title=Editor
results-tab-title=Results
start-minimize=Minimize
cancel-minimize=Cancel
select-algorithm=Select algorithm:
quine-mccluskey-combobox-item=Quine-McCluskey
espresso-combobox-item=Espresso
cut=Cut
copy=Copy
copy-all=Copy all
paste=Paste
undo=Undo
redo=Redo
export=Export...
expression-view=Expression
truth-table-view=Truth table
result-form=Result form:
sum-of-products=Sum of products
product-of-sums=Product of sums
output=Output
export-window-title=Export Data
export-as-txt=Export as txt
export-as-xml=Export as xml
export-as-csv=Export as csv
espresso-error=Error while running espresso executable
see-stacktrace=See stacktrace.log for more details
